Download Factors form the AQR Data Library • aqrr
…
Installation

You can install the development version of aqrr from GitHub with:

# install.packages("devtools")
devtools::install_github("Reckziegel/aqqr")

library(dplyr, warn.conflicts = FALSE)
library(ggplot2, warn.conflicts = FALSE)
library(aqrr)

# Quality Minus Junk Factor
qmj <- aqr_qmj_monthly()
na.omit(qmj)
#> # A tibble: 9,669 x 3
#>    date       name     value
#>    <date>     <chr>    <dbl>
#>  1 1957-07-31 USA    0.0112 
#>  2 1957-08-31 USA    0.00488
#>  3 1957-09-30 USA    0.00701
#>  4 1957-10-31 USA    0.00271
#>  5 1957-11-30 USA   -0.00897
#>  6 1957-12-31 USA   -0.00327
#>  7 1958-01-31 USA   -0.0252 
#>  8 1958-02-28 USA    0.00480
#>  9 1958-03-31 USA    0.0159 
#> 10 1958-04-30 USA    0.00256
#> # ... with 9,659 more rows
…
